INDEX VERSION 1.130+C:\ts\fsd62\Module3\Workspace1\.metadata\.plugins\org.eclipse.jdt.core
3040837599.index
492948161.index
459397772.index
3348520720.index
674573568.index
3477361619.index
2224744955.index
103378668.index
411227453.index
321772353.index
1956904976.index
1961815414.index
1348356128.index
3787802834.index
4135958314.index
27171715.index
3954762324.index
2515465883.index
4138326577.index
2267639344.index
3650869051.index
907682658.index
2885606711.index
2066830214.index
973013786.index
2527935451.index
3644761064.index
4111525981.index
1434219262.index
3659431875.index
1896155230.index
1957693645.index
2399848211.index
1946725198.index
4084259981.index
3879537791.index
3953777790.index
542153213.index
3670218719.index
4259073463.index
607266276.index
2205283528.index
1591186512.index
2305540798.index
895354549.index
3360721514.index
443803925.index
2507423472.index
