127.0.0.1 - - [28/Mar/2024:13:11:33 +0530] "GET / HTTP/1.1" 404 752
0:0:0:0:0:0:0:1 - - [28/Mar/2024:13:11:34 +0530] "GET /ServletDemo2/Greet.html HTTP/1.1" 200 243
0:0:0:0:0:0:0:1 - - [28/Mar/2024:13:11:43 +0530] "GET /ServletDemo2/Greet?username=Sandeep+g HTTP/1.1" 500 1383
